TAGS,VALUES
software,Startups
media,Startups
mobile,Startups
design,Startups
data,Unclassified
subscription,Unclassified
platform,Unclassified
finance,Mature Companies
deep tech,Startups
social,Startups
advertising,Unclassified
search engine,Unclassified
cloud technology,Startups
saas,Unclassified
video,Startups
adtech,Startups
app,Startups
retail,Mature Companies
branding,Startups
delivery,Unclassified
cleantech,Startups
community,Government/Non-profit
e-commerce,Startups
local,Government/Non-profit
fintech,Startups
commission,Mature Companies
navigation,Mature Companies
regtech compliance,Unclassified
consulting services,Mature Companies
online,Startups
hardware,Mature Companies
risk management,Unclassified
risk,Unclassified
service,Government/Non-profit
investing,Mature Companies
education,Universities/School
payment,Unclassified
communication,Unclassified
content,Startups
compliance,Government/Non-profit
ecommerce / trading,Startups
monitoring,Government/Non-profit
banking,Unclassified
management,Unclassified
biotechnology,Universities/School
automated technology,Startups
manufacturing,Mature Companies
testing,Unclassified
industrial technologies,Startups
social media,Startups
analytics,Unclassified
solution,Startups
game,Startups
arts & culture,Unclassified
printing,Mature Companies
technology,Startups
enterprise software,Startups
big data,Startups
game development,Startups
agency,Mature Companies
entertainment,Unclassified
insurtech,Startups
messaging,Unclassified
shopping,Unclassified
trading,Unclassified
home,Government/Non-profit
reporting,Unclassified
information technology,Startups
renting,Government/Non-profit
publishing,Universities/School
lighting,Unclassified
storage,Mature Companies
digital,Startups
mapping,Government/Non-profit
tech,Startups
it,Startups
led lighting,Unclassified
wireless technology,Startups
developer tools,Startups
21st century skills,Startups
seo,Mature Companies
marketing,Unclassified
hosting,Startups
freemium,Startups
sharing economy,Startups
business,Unclassified
travel,Unclassified
construction,Mature Companies
machine learning,Startups
ft 1000,Unclassified
accounting,Mature Companies
water,Government/Non-profit
supply chain management,Mature Companies
telecommunications,Mature Companies
recruitment,Mature Companies
3d technology,Startups
computer vision,Startups
charity,Government/Non-profit
process automation,Startups
web,Startups
human resources,Unclassified
online community,Startups
aviation & aerospace,Mature Companies
system engineering,Startups
artificial intelligence,Startups
security,Government/Non-profit
luxury,Unclassified
pr,Unclassified
chat,Startups
ecommerce,Startups
party,Government/Non-profit
health,Government/Non-profit
sale,Unclassified
gaming,Startups
website,Startups
electric energy,Mature Companies
green technology,Startups
tv,Mature Companies
back office,Unclassified
sensor,Unclassified
database,Unclassified
apparel,Unclassified
recognition technology,Startups
learning,Universities/School
women,Government/Non-profit
mortgages & lending,Government/Non-profit
internet,Startups
fashion,Unclassified
medical / healthcare,Government/Non-profit
deal comparison,Unclassified
wholesale,Mature Companies
verification,Government/Non-profit
clothes,Unclassified
on-demand,Startups
food,Unclassified
data analytics,Startups
product,Unclassified
furniture,Mature Companies
imaging technology,Startups
oncology,Universities/School
support,Government/Non-profit
energy,Government/Non-profit
research,Universities/School
sound technology,Startups
market,Unclassified
automotive,Mature Companies
fuel,Mature Companies
cancer,Universities/School
network,Startups
content management,Startups
virtual reality,Startups
lead generation,Unclassified
booking,Startups
asset management,Mature Companies
ticketing,Startups
wealth management,Mature Companies
real estate,Mature Companies
new,Startups
innovation radar,Startups
measurement,Universities/School
car,Mature Companies
packaging and containers,Unclassified
brokerage,Mature Companies
jobs / recruitment,Mature Companies
cleaning,Government/Non-profit
music,Unclassified
transportation,Unclassified
interior design,Startups
marketplace,Unclassified
event management,Unclassified
financial,Mature Companies
businesses,Unclassified
customer management,Unclassified
financial service,Mature Companies
decoration,Unclassified
presentation,Unclassified
free,Startups
intellectual property,Government/Non-profit
creating,Government/Non-profit
performance management,Mature Companies
cleaning services,Unclassified
administration,Government/Non-profit
price comparison,Unclassified
people,Government/Non-profit
crm,Unclassified
invoicing,Unclassified
property,Mature Companies
classifieds,Government/Non-profit
pharmaceutical,Unclassified
medical,Mature Companies
streaming,Startups
companies,Unclassified
sustainable development goals,Startups
open source,Startups
technical assistance,Startups
computer,Startups
sport,Mature Companies
solar energy,Unclassified
job,Unclassified
insurance,Mature Companies
world,Government/Non-profit
recycling,Government/Non-profit
application,Startups
collaboration,Government/Non-profit
certification,Government/Non-profit
comparison,Unclassified
social network,Startups
geopositioning,Unclassified
enterprise,Mature Companies
connected device,Startups
marketing ,Unclassified
offer,Unclassified
waste reduction,Government/Non-profit
international,Unclassified
surgery,Unclassified
core sustainable impact,Startups
appliances,Unclassified
oil & gas,Mature Companies
predictive analytics,Startups
shoes,Unclassified
moving services,Mature Companies
heating,Government/Non-profit
workspace,Unclassified
performance,Unclassified
nanotech,Startups
training,Startups
tourism,Unclassified
smart tech,Startups
users,Startups
creative solutions,Startups
accommodation,Government/Non-profit
email,Unclassified
debt collection,Government/Non-profit
enterprise resource planning,Mature Companies
e-learning,Startups
consumer,Unclassified
industry,Mature Companies
blood,Universities/School
augmented reality,Startups
commerce,Unclassified
consumer productivity,Unclassified
quality,Startups
money management,Unclassified
parking,Government/Non-profit
insight,Unclassified
credit,Mature Companies
applicant tracking,Unclassified
device,Startups
legal,Government/Non-profit
authentification,Startups
fitness,Startups
electronic,Unclassified
recommendation,Startups
office space,Unclassified
building,Mature Companies
wearables,Startups
colocation,Government/Non-profit
genetics,Universities/School
trading platform,Startups
intelligence,Unclassified
distribution,Mature Companies
real time,Unclassified
market intelligence,Unclassified
photo,Startups
business intelligence,Unclassified
neurology,Universities/School
manufacturer,Mature Companies
drones,Startups
student,Universities/School
review,Universities/School
advisory,Unclassified
publisher tools,Unclassified
wellness / beauty,Unclassified
adventure,Unclassified
dna,Universities/School
legal tech,Startups
tracking,Government/Non-profit
cybersecurity,Startups
visualization,Startups
foreign exchange,Mature Companies
customer,Unclassified
capital market,Mature Companies
power,Government/Non-profit
audio,Unclassified
private,Mature Companies
team collaboration,Unclassified
hotel,Mature Companies
direct-to-consumer,Startups
engine,Mature Companies
innovation,Startups
vacation,Unclassified
infrastructure services,Government/Non-profit
home improvement,Unclassified
order,Startups
health care,Government/Non-profit
renewable energies,Government/Non-profit
genome engineering,Universities/School
material,Unclassified
conference,Unclassified
farming,Mature Companies
vehicle,Mature Companies
medical device,Startups
ride sharing,Startups
experts,Government/Non-profit
phone,Startups
directory,Unclassified
control systems,Government/Non-profit
fintech related,Startups
ride,Startups
tool,Unclassified
battery,Unclassified
work,Unclassified
buy,Unclassified
film production,Unclassified
personalisation,Startups
employment,Mature Companies
cooling tech,Startups
broadcast,Mature Companies
aerospace,Mature Companies
time management,Unclassified
iphone,Startups
television,Mature Companies
web design,Startups
live,Unclassified
accessories,Unclassified
pricing,Unclassified
discovery,Unclassified
network security,Startups
space,Government/Non-profit
production,Mature Companies
helping,Government/Non-profit
loan,Government/Non-profit
peer-to-peer,Unclassified
deal,Unclassified
experience,Unclassified
sustainability,Startups
blockchain,Startups
online marketing,Startups
process technologies,Startups
logistic,Government/Non-profit
web hosting,Startups
cloud computing,Startups
iot internetofthings,Startups
alarm,Government/Non-profit
android,Startups
freelancers,Startups
dietary supplements,Startups
care,Government/Non-profit
online learning,Startups
tea,Unclassified
audit,Mature Companies
superfood,Startups
discount,Mature Companies
clinical,Government/Non-profit
organisation,Government/Non-profit
sell,Unclassified
food delivery,Startups
global,Unclassified
merchant tools,Unclassified
industrial technology,Startups
crowdfunding,Startups
personal finance,Startups
b2b,Unclassified
techscale200,Startups
iot,Startups
engagement,Government/Non-profit
interactive,Startups
user behavior,Startups
due diligence,Unclassified
distribution & consumption,Mature Companies
used,Unclassified
protection,Government/Non-profit
betting & gambling,Unclassified
voice recognition,Startups
consumer electronics,Mature Companies
cloud services,Startups
diagnostic,Mature Companies
leisure,Government/Non-profit
cardiology,Mature Companies
semiconductor,Mature Companies
mobile app,Startups
text analytics,Universities/School
network management,Startups
waste management,Government/Non-profit
radio,Mature Companies
exchange,Unclassified
scientific,Universities/School
medical technology,Universities/School
healthcare,Government/Non-profit
recovery,Government/Non-profit
planning,Government/Non-profit
document management,Unclassified
omnichannel,Unclassified
children,Government/Non-profit
lifestyle,Unclassified
fleet management,Mature Companies
engineering services,Unclassified
non-invasive,Startups
virtual,Startups
facebook,Startups
broadband,Startups
patient care,Mature Companies
ride hailing,Startups
debate,Universities/School
speech recognition,Startups
sharing,Startups
travel & tourism,Unclassified
school,Universities/School
kid,Government/Non-profit
optimization,Startups
agritech,Startups
fin-tech,Startups
eye care,Unclassified
ideas,Startups
commercial real estate,Unclassified
backup,Unclassified
sme,Unclassified
course,Universities/School
billing,Unclassified
animation,Startups
drug,Government/Non-profit
premium,Mature Companies
card,Unclassified
energy efficiency,Startups
polymer,Universities/School
governance,Government/Non-profit
beauty,Unclassified
crowdsourcing,Startups
law enforcement,Government/Non-profit
account,Unclassified
digital media,Startups
energy storage,Startups
graphic design,Unclassified
cash,Unclassified
unmanned vehicles,Government/Non-profit
identity management,Government/Non-profit
anti money laundering,Government/Non-profit
multi-channel,Unclassified
public sector,Government/Non-profit
guide,Unclassified
retirement,Government/Non-profit
process,Unclassified
project,Government/Non-profit
daily deals,Unclassified
internet services,Startups
industrial,Mature Companies
customer service,Unclassified
treatment,Unclassified
operators,Unclassified
voip,Startups
play,Unclassified
restaurant,Mature Companies
eco-friendly,Startups
campaign,Government/Non-profit
flight management,Mature Companies
energy monitoring,Unclassified
testimonials,Unclassified
repair,Unclassified
smart city,Government/Non-profit
gift,Unclassified
robotic,Startups
therapeutics,Unclassified
connectivity,Unclassified
twitter,Startups
custom,Startups
solar,Government/Non-profit
carbon,Universities/School
productivity software,Startups
discover,Unclassified
friends,Startups
food and beverage,Unclassified
e-mail marketing,Startups
agents,Unclassified
grooming,Unclassified
football,Mature Companies
poker,Unclassified
personal health,Startups
media and entertainment,Startups
autonomous & sensor tech,Startups
facility management,Mature Companies
mail,Unclassified
it consulting,Startups
energy saving,Startups
ipad,Startups
stroke,Universities/School
designers,Unclassified
translation,Unclassified
equipment,Unclassified
eyewear,Unclassified
currency,Unclassified
feedback,Startups
influencer marketing,Startups
resource,Unclassified
simulation,Startups
money transfer,Unclassified
book,Universities/School
operation,Unclassified
fund management,Unclassified
contract management,Mature Companies
wifi,Startups
diabetes,Universities/School
selling,Unclassified
business analytics,Unclassified
elderly care,Government/Non-profit
onboarding,Unclassified
equity research,Unclassified
staffing,Unclassified
embedding technology,Startups
family,Government/Non-profit
weather risk management,Government/Non-profit
scoring,Unclassified
saving,Unclassified
safety,Government/Non-profit
fraud management,Government/Non-profit
scheduling,Unclassified
chemistry,Universities/School
camera,Unclassified
utilities,Government/Non-profit
clients,Unclassified
freelance,Startups
lenses,Unclassified
survey,Unclassified
server,Startups
alternative finance,Startups
strategy,Unclassified
point of sale,Unclassified
air,Unclassified
professional services,Unclassified
social commerce,Startups
mechanical solutions,Unclassified
procurement,Unclassified
general,Unclassified
virtualization,Startups
location analytics,Startups
alternative protein,Startups
auction,Mature Companies
optical technology,Startups
user experience,Startups
outsourcing,Startups
call,Unclassified
display,Unclassified
airplanes,Mature Companies
educational,Universities/School
research and development,Universities/School
drug development,Universities/School
coupons,Startups
